%YAML 1.1
%TAG !u! tag:unity3d.com,2011:
--- !u!114 &11400000
MonoBehaviour:
  m_ObjectHideFlags: 0
  m_CorrespondingSourceObject: {fileID: 0}
  m_PrefabInstance: {fileID: 0}
  m_PrefabAsset: {fileID: 0}
  m_GameObject: {fileID: 0}
  m_Enabled: 1
  m_EditorHideFlags: 0
  m_Script: {fileID: 11500000, guid: d98dc69e30b052a4db03cf979783a8ab, type: 3}
  m_Name: Settings
  m_EditorClassIdentifier: 
  Speed: 2
  FeedReward: 1
  PopulateReward: 1
  EndState: 1
  Obstacle: 1
